2001.09.06 13:38 B W:\AEI\Produccio\ictol\source\lib\dynapi\gui\button.js --> mis.ictnet.es /E:/MIS/ictonline/source/lib/dynapi/gui button.js
2001.09.06 13:38 B W:\AEI\Produccio\ictol\source\lib\dynapi\gui\buttonimage.js --> mis.ictnet.es /E:/MIS/ictonline/source/lib/dynapi/gui buttonimage.js
2001.09.06 13:38 B W:\AEI\Produccio\ictol\source\lib\dynapi\gui\dynimage.js --> mis.ictnet.es /E:/MIS/ictonline/source/lib/dynapi/gui dynimage.js
2001.09.06 13:38 B W:\AEI\Produccio\ictol\source\lib\dynapi\gui\label.js --> mis.ictnet.es /E:/MIS/ictonline/source/lib/dynapi/gui label.js
2001.09.06 13:38 B W:\AEI\Produccio\ictol\source\lib\dynapi\gui\list.js --> mis.ictnet.es /E:/MIS/ictonline/source/lib/dynapi/gui list.js
2001.09.06 13:38 B W:\AEI\Produccio\ictol\source\lib\dynapi\gui\loadpanel.js --> mis.ictnet.es /E:/MIS/ictonline/source/lib/dynapi/gui loadpanel.js
2001.09.06 13:38 B W:\AEI\Produccio\ictol\source\lib\dynapi\gui\menu.js --> mis.ictnet.es /E:/MIS/ictonline/source/lib/dynapi/gui menu.js
2001.09.06 13:38 B W:\AEI\Produccio\ictol\source\lib\dynapi\gui\menu.js.bak --> mis.ictnet.es /E:/MIS/ictonline/source/lib/dynapi/gui menu.js.bak
2001.09.06 13:38 B W:\AEI\Produccio\ictol\source\lib\dynapi\gui\pushpanel.js --> mis.ictnet.es /E:/MIS/ictonline/source/lib/dynapi/gui pushpanel.js
2001.09.06 13:38 B W:\AEI\Produccio\ictol\source\lib\dynapi\gui\scrollbar.js --> mis.ictnet.es /E:/MIS/ictonline/source/lib/dynapi/gui scrollbar.js
2001.09.06 13:38 B W:\AEI\Produccio\ictol\source\lib\dynapi\gui\scrollpane.js --> mis.ictnet.es /E:/MIS/ictonline/source/lib/dynapi/gui scrollpane.js
2001.09.06 13:38 B W:\AEI\Produccio\ictol\source\lib\dynapi\gui\sprite.js --> mis.ictnet.es /E:/MIS/ictonline/source/lib/dynapi/gui sprite.js
2001.09.06 13:38 B W:\AEI\Produccio\ictol\source\lib\dynapi\gui\viewport.js --> mis.ictnet.es /E:/MIS/ictonline/source/lib/dynapi/gui viewport.js
2001.09.26 15:48 B W:\AEI\Produccio\ictol\source\lib\dynapi\gui\button.js --> ictonline.ictnet.es /lib/dynapi/gui button.js
2001.09.26 15:48 B W:\AEI\Produccio\ictol\source\lib\dynapi\gui\buttonimage.js --> ictonline.ictnet.es /lib/dynapi/gui buttonimage.js
2001.09.26 15:48 B W:\AEI\Produccio\ictol\source\lib\dynapi\gui\dynimage.js --> ictonline.ictnet.es /lib/dynapi/gui dynimage.js
2001.09.26 15:48 B W:\AEI\Produccio\ictol\source\lib\dynapi\gui\label.js --> ictonline.ictnet.es /lib/dynapi/gui label.js
2001.09.26 15:48 B W:\AEI\Produccio\ictol\source\lib\dynapi\gui\list.js --> ictonline.ictnet.es /lib/dynapi/gui list.js
2001.09.26 15:48 B W:\AEI\Produccio\ictol\source\lib\dynapi\gui\loadpanel.js --> ictonline.ictnet.es /lib/dynapi/gui loadpanel.js
2001.09.26 15:48 B W:\AEI\Produccio\ictol\source\lib\dynapi\gui\menu.js --> ictonline.ictnet.es /lib/dynapi/gui menu.js
2001.09.26 15:48 B W:\AEI\Produccio\ictol\source\lib\dynapi\gui\menu.js.bak --> ictonline.ictnet.es /lib/dynapi/gui menu.js.bak
2001.09.26 15:48 B W:\AEI\Produccio\ictol\source\lib\dynapi\gui\pushpanel.js --> ictonline.ictnet.es /lib/dynapi/gui pushpanel.js
2001.09.26 15:48 B W:\AEI\Produccio\ictol\source\lib\dynapi\gui\scrollbar.js --> ictonline.ictnet.es /lib/dynapi/gui scrollbar.js
2001.09.26 15:48 B W:\AEI\Produccio\ictol\source\lib\dynapi\gui\scrollpane.js --> ictonline.ictnet.es /lib/dynapi/gui scrollpane.js
2001.09.26 15:48 B W:\AEI\Produccio\ictol\source\lib\dynapi\gui\sprite.js --> ictonline.ictnet.es /lib/dynapi/gui sprite.js
2001.09.26 15:48 B W:\AEI\Produccio\ictol\source\lib\dynapi\gui\viewport.js --> ictonline.ictnet.es /lib/dynapi/gui viewport.js
2001.09.26 15:48 B W:\AEI\Produccio\ictol\source\lib\dynapi\gui\WS_FTP.LOG --> ictonline.ictnet.es /lib/dynapi/gui WS_FTP.LOG
2001.10.23 11:39 B W:\AEI\Produccio\ictol\source\lib\dynapi\gui\button.js --> ictonline.ictnet.es /lib/dynapi/gui button.js
2001.10.23 11:39 B W:\AEI\Produccio\ictol\source\lib\dynapi\gui\buttonimage.js --> ictonline.ictnet.es /lib/dynapi/gui buttonimage.js
2001.10.23 11:39 B W:\AEI\Produccio\ictol\source\lib\dynapi\gui\dynimage.js --> ictonline.ictnet.es /lib/dynapi/gui dynimage.js
2001.10.23 11:39 B W:\AEI\Produccio\ictol\source\lib\dynapi\gui\label.js --> ictonline.ictnet.es /lib/dynapi/gui label.js
2001.10.23 11:39 B W:\AEI\Produccio\ictol\source\lib\dynapi\gui\list.js --> ictonline.ictnet.es /lib/dynapi/gui list.js
2001.10.23 11:39 B W:\AEI\Produccio\ictol\source\lib\dynapi\gui\loadpanel.js --> ictonline.ictnet.es /lib/dynapi/gui loadpanel.js
2001.10.23 11:39 B W:\AEI\Produccio\ictol\source\lib\dynapi\gui\menu.js --> ictonline.ictnet.es /lib/dynapi/gui menu.js
2001.10.23 11:39 B W:\AEI\Produccio\ictol\source\lib\dynapi\gui\menu.js.bak --> ictonline.ictnet.es /lib/dynapi/gui menu.js.bak
2001.10.23 11:39 B W:\AEI\Produccio\ictol\source\lib\dynapi\gui\pushpanel.js --> ictonline.ictnet.es /lib/dynapi/gui pushpanel.js
2001.10.23 11:39 B W:\AEI\Produccio\ictol\source\lib\dynapi\gui\scrollbar.js --> ictonline.ictnet.es /lib/dynapi/gui scrollbar.js
2001.10.23 11:39 B W:\AEI\Produccio\ictol\source\lib\dynapi\gui\scrollpane.js --> ictonline.ictnet.es /lib/dynapi/gui scrollpane.js
2001.10.23 11:39 B W:\AEI\Produccio\ictol\source\lib\dynapi\gui\sprite.js --> ictonline.ictnet.es /lib/dynapi/gui sprite.js
2001.10.23 11:39 B W:\AEI\Produccio\ictol\source\lib\dynapi\gui\viewport.js --> ictonline.ictnet.es /lib/dynapi/gui viewport.js
2001.10.23 11:39 B W:\AEI\Produccio\ictol\source\lib\dynapi\gui\WS_FTP.LOG --> ictonline.ictnet.es /lib/dynapi/gui WS_FTP.LOG
