2001.09.06 13:40 B W:\AEI\Produccio\ictol\source\lib\dynapi\util\circleanim.js --> mis.ictnet.es /E:/MIS/ictonline/source/lib/dynapi/util circleanim.js
2001.09.06 13:40 B W:\AEI\Produccio\ictol\source\lib\dynapi\util\console.js --> mis.ictnet.es /E:/MIS/ictonline/source/lib/dynapi/util console.js
2001.09.06 13:40 B W:\AEI\Produccio\ictol\source\lib\dynapi\util\cookies.js --> mis.ictnet.es /E:/MIS/ictonline/source/lib/dynapi/util cookies.js
2001.09.06 13:40 B W:\AEI\Produccio\ictol\source\lib\dynapi\util\debug.js --> mis.ictnet.es /E:/MIS/ictonline/source/lib/dynapi/util debug.js
2001.09.06 13:40 B W:\AEI\Produccio\ictol\source\lib\dynapi\util\hoveranim.js --> mis.ictnet.es /E:/MIS/ictonline/source/lib/dynapi/util hoveranim.js
2001.09.06 13:40 B W:\AEI\Produccio\ictol\source\lib\dynapi\util\imganim.js --> mis.ictnet.es /E:/MIS/ictonline/source/lib/dynapi/util imganim.js
2001.09.06 13:40 B W:\AEI\Produccio\ictol\source\lib\dynapi\util\pathanim.js --> mis.ictnet.es /E:/MIS/ictonline/source/lib/dynapi/util pathanim.js
2001.09.06 13:40 B W:\AEI\Produccio\ictol\source\lib\dynapi\util\thread.js --> mis.ictnet.es /E:/MIS/ictonline/source/lib/dynapi/util thread.js
2001.09.26 15:49 B W:\AEI\Produccio\ictol\source\lib\dynapi\util\circleanim.js --> ictonline.ictnet.es /lib/dynapi/util circleanim.js
2001.09.26 15:49 B W:\AEI\Produccio\ictol\source\lib\dynapi\util\console.js --> ictonline.ictnet.es /lib/dynapi/util console.js
2001.09.26 15:49 B W:\AEI\Produccio\ictol\source\lib\dynapi\util\cookies.js --> ictonline.ictnet.es /lib/dynapi/util cookies.js
2001.09.26 15:49 B W:\AEI\Produccio\ictol\source\lib\dynapi\util\debug.js --> ictonline.ictnet.es /lib/dynapi/util debug.js
2001.09.26 15:49 B W:\AEI\Produccio\ictol\source\lib\dynapi\util\hoveranim.js --> ictonline.ictnet.es /lib/dynapi/util hoveranim.js
2001.09.26 15:49 B W:\AEI\Produccio\ictol\source\lib\dynapi\util\imganim.js --> ictonline.ictnet.es /lib/dynapi/util imganim.js
2001.09.26 15:49 B W:\AEI\Produccio\ictol\source\lib\dynapi\util\pathanim.js --> ictonline.ictnet.es /lib/dynapi/util pathanim.js
2001.09.26 15:49 B W:\AEI\Produccio\ictol\source\lib\dynapi\util\thread.js --> ictonline.ictnet.es /lib/dynapi/util thread.js
2001.09.26 15:49 B W:\AEI\Produccio\ictol\source\lib\dynapi\util\WS_FTP.LOG --> ictonline.ictnet.es /lib/dynapi/util WS_FTP.LOG
2001.10.23 11:40 B W:\AEI\Produccio\ictol\source\lib\dynapi\util\circleanim.js --> ictonline.ictnet.es /lib/dynapi/util circleanim.js
2001.10.23 11:40 B W:\AEI\Produccio\ictol\source\lib\dynapi\util\console.js --> ictonline.ictnet.es /lib/dynapi/util console.js
2001.10.23 11:40 B W:\AEI\Produccio\ictol\source\lib\dynapi\util\cookies.js --> ictonline.ictnet.es /lib/dynapi/util cookies.js
2001.10.23 11:40 B W:\AEI\Produccio\ictol\source\lib\dynapi\util\debug.js --> ictonline.ictnet.es /lib/dynapi/util debug.js
2001.10.23 11:40 B W:\AEI\Produccio\ictol\source\lib\dynapi\util\hoveranim.js --> ictonline.ictnet.es /lib/dynapi/util hoveranim.js
2001.10.23 11:40 B W:\AEI\Produccio\ictol\source\lib\dynapi\util\imganim.js --> ictonline.ictnet.es /lib/dynapi/util imganim.js
2001.10.23 11:40 B W:\AEI\Produccio\ictol\source\lib\dynapi\util\pathanim.js --> ictonline.ictnet.es /lib/dynapi/util pathanim.js
2001.10.23 11:40 B W:\AEI\Produccio\ictol\source\lib\dynapi\util\thread.js --> ictonline.ictnet.es /lib/dynapi/util thread.js
2001.10.23 11:40 B W:\AEI\Produccio\ictol\source\lib\dynapi\util\WS_FTP.LOG --> ictonline.ictnet.es /lib/dynapi/util WS_FTP.LOG
