2001.09.06 13:38 B W:\AEI\Produccio\ictol\source\lib\dynapi\images\common\arrowdown.gif --> mis.ictnet.es /E:/MIS/ictonline/source/lib/dynapi/images/common arrowdown.gif
2001.09.06 13:38 B W:\AEI\Produccio\ictol\source\lib\dynapi\images\common\arrowleft.gif --> mis.ictnet.es /E:/MIS/ictonline/source/lib/dynapi/images/common arrowleft.gif
2001.09.06 13:38 B W:\AEI\Produccio\ictol\source\lib\dynapi\images\common\arrowright.gif --> mis.ictnet.es /E:/MIS/ictonline/source/lib/dynapi/images/common arrowright.gif
2001.09.06 13:38 B W:\AEI\Produccio\ictol\source\lib\dynapi\images\common\arrowup.gif --> mis.ictnet.es /E:/MIS/ictonline/source/lib/dynapi/images/common arrowup.gif
2001.09.26 15:48 B W:\AEI\Produccio\ictol\source\lib\dynapi\images\common\arrowdown.gif --> ictonline.ictnet.es /lib/dynapi/images/common arrowdown.gif
2001.09.26 15:48 B W:\AEI\Produccio\ictol\source\lib\dynapi\images\common\arrowleft.gif --> ictonline.ictnet.es /lib/dynapi/images/common arrowleft.gif
2001.09.26 15:48 B W:\AEI\Produccio\ictol\source\lib\dynapi\images\common\arrowright.gif --> ictonline.ictnet.es /lib/dynapi/images/common arrowright.gif
2001.09.26 15:48 B W:\AEI\Produccio\ictol\source\lib\dynapi\images\common\arrowup.gif --> ictonline.ictnet.es /lib/dynapi/images/common arrowup.gif
2001.09.26 15:48 B W:\AEI\Produccio\ictol\source\lib\dynapi\images\common\WS_FTP.LOG --> ictonline.ictnet.es /lib/dynapi/images/common WS_FTP.LOG
2001.10.23 11:39 B W:\AEI\Produccio\ictol\source\lib\dynapi\images\common\arrowdown.gif --> ictonline.ictnet.es /lib/dynapi/images/common arrowdown.gif
2001.10.23 11:39 B W:\AEI\Produccio\ictol\source\lib\dynapi\images\common\arrowleft.gif --> ictonline.ictnet.es /lib/dynapi/images/common arrowleft.gif
2001.10.23 11:39 B W:\AEI\Produccio\ictol\source\lib\dynapi\images\common\arrowright.gif --> ictonline.ictnet.es /lib/dynapi/images/common arrowright.gif
2001.10.23 11:39 B W:\AEI\Produccio\ictol\source\lib\dynapi\images\common\arrowup.gif --> ictonline.ictnet.es /lib/dynapi/images/common arrowup.gif
2001.10.23 11:39 B W:\AEI\Produccio\ictol\source\lib\dynapi\images\common\WS_FTP.LOG --> ictonline.ictnet.es /lib/dynapi/images/common WS_FTP.LOG
