2001.09.06 13:39 B W:\AEI\Produccio\ictol\source\lib\dynapi\js\audio.js --> mis.ictnet.es /E:/MIS/ictonline/source/lib/dynapi/js audio.js
2001.09.06 13:39 B W:\AEI\Produccio\ictol\source\lib\dynapi\js\browsercheck.js --> mis.ictnet.es /E:/MIS/ictonline/source/lib/dynapi/js browsercheck.js
2001.09.06 13:39 B W:\AEI\Produccio\ictol\source\lib\dynapi\js\buttonimage-mini.js --> mis.ictnet.es /E:/MIS/ictonline/source/lib/dynapi/js buttonimage-mini.js
2001.09.06 13:39 B W:\AEI\Produccio\ictol\source\lib\dynapi\js\buttonimage.js --> mis.ictnet.es /E:/MIS/ictonline/source/lib/dynapi/js buttonimage.js
2001.09.06 13:39 B W:\AEI\Produccio\ictol\source\lib\dynapi\js\calendar.js --> mis.ictnet.es /E:/MIS/ictonline/source/lib/dynapi/js calendar.js
2001.09.06 13:39 B W:\AEI\Produccio\ictol\source\lib\dynapi\js\checkbox.js --> mis.ictnet.es /E:/MIS/ictonline/source/lib/dynapi/js checkbox.js
2001.09.06 13:39 B W:\AEI\Produccio\ictol\source\lib\dynapi\js\circle.js --> mis.ictnet.es /E:/MIS/ictonline/source/lib/dynapi/js circle.js
2001.09.06 13:39 B W:\AEI\Produccio\ictol\source\lib\dynapi\js\clock.js --> mis.ictnet.es /E:/MIS/ictonline/source/lib/dynapi/js clock.js
2001.09.06 13:39 B W:\AEI\Produccio\ictol\source\lib\dynapi\js\collapsemenu.js --> mis.ictnet.es /E:/MIS/ictonline/source/lib/dynapi/js collapsemenu.js
2001.09.06 13:39 B W:\AEI\Produccio\ictol\source\lib\dynapi\js\cookies.js --> mis.ictnet.es /E:/MIS/ictonline/source/lib/dynapi/js cookies.js
2001.09.06 13:39 B W:\AEI\Produccio\ictol\source\lib\dynapi\js\createdestroy.js --> mis.ictnet.es /E:/MIS/ictonline/source/lib/dynapi/js createdestroy.js
2001.09.06 13:39 B W:\AEI\Produccio\ictol\source\lib\dynapi\js\css.js --> mis.ictnet.es /E:/MIS/ictonline/source/lib/dynapi/js css.js
2001.09.06 13:39 B W:\AEI\Produccio\ictol\source\lib\dynapi\js\drag.js --> mis.ictnet.es /E:/MIS/ictonline/source/lib/dynapi/js drag.js
2001.09.06 13:39 B W:\AEI\Produccio\ictol\source\lib\dynapi\js\dynlayer-clip.js --> mis.ictnet.es /E:/MIS/ictonline/source/lib/dynapi/js dynlayer-clip.js
2001.09.06 13:39 B W:\AEI\Produccio\ictol\source\lib\dynapi\js\dynlayer-common.js --> mis.ictnet.es /E:/MIS/ictonline/source/lib/dynapi/js dynlayer-common.js
2001.09.06 13:39 B W:\AEI\Produccio\ictol\source\lib\dynapi\js\dynlayer-glide.js --> mis.ictnet.es /E:/MIS/ictonline/source/lib/dynapi/js dynlayer-glide.js
2001.09.06 13:39 B W:\AEI\Produccio\ictol\source\lib\dynapi\js\dynlayer-min.js --> mis.ictnet.es /E:/MIS/ictonline/source/lib/dynapi/js dynlayer-min.js
2001.09.06 13:39 B W:\AEI\Produccio\ictol\source\lib\dynapi\js\dynlayer-slide.js --> mis.ictnet.es /E:/MIS/ictonline/source/lib/dynapi/js dynlayer-slide.js
2001.09.06 13:39 B W:\AEI\Produccio\ictol\source\lib\dynapi\js\dynlayer-test.js --> mis.ictnet.es /E:/MIS/ictonline/source/lib/dynapi/js dynlayer-test.js
2001.09.06 13:39 B W:\AEI\Produccio\ictol\source\lib\dynapi\js\dynlayer-wipe.js --> mis.ictnet.es /E:/MIS/ictonline/source/lib/dynapi/js dynlayer-wipe.js
2001.09.06 13:39 B W:\AEI\Produccio\ictol\source\lib\dynapi\js\dynlayer-write.js --> mis.ictnet.es /E:/MIS/ictonline/source/lib/dynapi/js dynlayer-write.js
2001.09.06 13:39 B W:\AEI\Produccio\ictol\source\lib\dynapi\js\dynlayer.js --> mis.ictnet.es /E:/MIS/ictonline/source/lib/dynapi/js dynlayer.js
2001.09.06 13:39 B W:\AEI\Produccio\ictol\source\lib\dynapi\js\dynwindow.js --> mis.ictnet.es /E:/MIS/ictonline/source/lib/dynapi/js dynwindow.js
2001.09.06 13:39 B W:\AEI\Produccio\ictol\source\lib\dynapi\js\ellipse.js --> mis.ictnet.es /E:/MIS/ictonline/source/lib/dynapi/js ellipse.js
2001.09.06 13:39 B W:\AEI\Produccio\ictol\source\lib\dynapi\js\gifanim.js --> mis.ictnet.es /E:/MIS/ictonline/source/lib/dynapi/js gifanim.js
2001.09.06 13:39 B W:\AEI\Produccio\ictol\source\lib\dynapi\js\hover.js --> mis.ictnet.es /E:/MIS/ictonline/source/lib/dynapi/js hover.js
2001.09.06 13:39 B W:\AEI\Produccio\ictol\source\lib\dynapi\js\images.js --> mis.ictnet.es /E:/MIS/ictonline/source/lib/dynapi/js images.js
2001.09.06 13:39 B W:\AEI\Produccio\ictol\source\lib\dynapi\js\liquid.js --> mis.ictnet.es /E:/MIS/ictonline/source/lib/dynapi/js liquid.js
2001.09.06 13:39 B W:\AEI\Produccio\ictol\source\lib\dynapi\js\list.js --> mis.ictnet.es /E:/MIS/ictonline/source/lib/dynapi/js list.js
2001.09.06 13:39 B W:\AEI\Produccio\ictol\source\lib\dynapi\js\menubar.js --> mis.ictnet.es /E:/MIS/ictonline/source/lib/dynapi/js menubar.js
2001.09.06 13:39 B W:\AEI\Produccio\ictol\source\lib\dynapi\js\menulist.js --> mis.ictnet.es /E:/MIS/ictonline/source/lib/dynapi/js menulist.js
2001.09.06 13:39 B W:\AEI\Produccio\ictol\source\lib\dynapi\js\miniscroll.js --> mis.ictnet.es /E:/MIS/ictonline/source/lib/dynapi/js miniscroll.js
2001.09.06 13:39 B W:\AEI\Produccio\ictol\source\lib\dynapi\js\mouseevents.js --> mis.ictnet.es /E:/MIS/ictonline/source/lib/dynapi/js mouseevents.js
2001.09.06 13:39 B W:\AEI\Produccio\ictol\source\lib\dynapi\js\newsticker.js --> mis.ictnet.es /E:/MIS/ictonline/source/lib/dynapi/js newsticker.js
2001.09.06 13:39 B W:\AEI\Produccio\ictol\source\lib\dynapi\js\parabola.js --> mis.ictnet.es /E:/MIS/ictonline/source/lib/dynapi/js parabola.js
2001.09.06 13:39 B W:\AEI\Produccio\ictol\source\lib\dynapi\js\passargs.js --> mis.ictnet.es /E:/MIS/ictonline/source/lib/dynapi/js passargs.js
2001.09.06 13:39 B W:\AEI\Produccio\ictol\source\lib\dynapi\js\path.js --> mis.ictnet.es /E:/MIS/ictonline/source/lib/dynapi/js path.js
2001.09.06 13:40 B W:\AEI\Produccio\ictol\source\lib\dynapi\js\progressbar.js --> mis.ictnet.es /E:/MIS/ictonline/source/lib/dynapi/js progressbar.js
2001.09.06 13:40 B W:\AEI\Produccio\ictol\source\lib\dynapi\js\pushpanel.js --> mis.ictnet.es /E:/MIS/ictonline/source/lib/dynapi/js pushpanel.js
2001.09.06 13:40 B W:\AEI\Produccio\ictol\source\lib\dynapi\js\radio.js --> mis.ictnet.es /E:/MIS/ictonline/source/lib/dynapi/js radio.js
2001.09.06 13:40 B W:\AEI\Produccio\ictol\source\lib\dynapi\js\resizefix.js --> mis.ictnet.es /E:/MIS/ictonline/source/lib/dynapi/js resizefix.js
2001.09.06 13:40 B W:\AEI\Produccio\ictol\source\lib\dynapi\js\scroll-resize.js --> mis.ictnet.es /E:/MIS/ictonline/source/lib/dynapi/js scroll-resize.js
2001.09.06 13:40 B W:\AEI\Produccio\ictol\source\lib\dynapi\js\scroll.js --> mis.ictnet.es /E:/MIS/ictonline/source/lib/dynapi/js scroll.js
2001.09.06 13:40 B W:\AEI\Produccio\ictol\source\lib\dynapi\js\scroll2-ext.js --> mis.ictnet.es /E:/MIS/ictonline/source/lib/dynapi/js scroll2-ext.js
2001.09.06 13:40 B W:\AEI\Produccio\ictol\source\lib\dynapi\js\scroll2.js --> mis.ictnet.es /E:/MIS/ictonline/source/lib/dynapi/js scroll2.js
2001.09.06 13:40 B W:\AEI\Produccio\ictol\source\lib\dynapi\js\scrollbar.js --> mis.ictnet.es /E:/MIS/ictonline/source/lib/dynapi/js scrollbar.js
2001.09.06 13:40 B W:\AEI\Produccio\ictol\source\lib\dynapi\js\scrolllist.js --> mis.ictnet.es /E:/MIS/ictonline/source/lib/dynapi/js scrolllist.js
2001.09.06 13:40 B W:\AEI\Produccio\ictol\source\lib\dynapi\js\scrollwindow.js --> mis.ictnet.es /E:/MIS/ictonline/source/lib/dynapi/js scrollwindow.js
2001.09.06 13:40 B W:\AEI\Produccio\ictol\source\lib\dynapi\js\selectlist.js --> mis.ictnet.es /E:/MIS/ictonline/source/lib/dynapi/js selectlist.js
2001.09.06 13:40 B W:\AEI\Produccio\ictol\source\lib\dynapi\js\simpleapi.js --> mis.ictnet.es /E:/MIS/ictonline/source/lib/dynapi/js simpleapi.js
2001.09.06 13:40 B W:\AEI\Produccio\ictol\source\lib\dynapi\js\sinewave.js --> mis.ictnet.es /E:/MIS/ictonline/source/lib/dynapi/js sinewave.js
2001.09.06 13:40 B W:\AEI\Produccio\ictol\source\lib\dynapi\js\tabs.js --> mis.ictnet.es /E:/MIS/ictonline/source/lib/dynapi/js tabs.js
2001.09.26 15:48 B W:\AEI\Produccio\ictol\source\lib\dynapi\js\audio.js --> ictonline.ictnet.es /lib/dynapi/js audio.js
2001.09.26 15:48 B W:\AEI\Produccio\ictol\source\lib\dynapi\js\browsercheck.js --> ictonline.ictnet.es /lib/dynapi/js browsercheck.js
2001.09.26 15:48 B W:\AEI\Produccio\ictol\source\lib\dynapi\js\buttonimage-mini.js --> ictonline.ictnet.es /lib/dynapi/js buttonimage-mini.js
2001.09.26 15:48 B W:\AEI\Produccio\ictol\source\lib\dynapi\js\buttonimage.js --> ictonline.ictnet.es /lib/dynapi/js buttonimage.js
2001.09.26 15:48 B W:\AEI\Produccio\ictol\source\lib\dynapi\js\calendar.js --> ictonline.ictnet.es /lib/dynapi/js calendar.js
2001.09.26 15:48 B W:\AEI\Produccio\ictol\source\lib\dynapi\js\checkbox.js --> ictonline.ictnet.es /lib/dynapi/js checkbox.js
2001.09.26 15:48 B W:\AEI\Produccio\ictol\source\lib\dynapi\js\circle.js --> ictonline.ictnet.es /lib/dynapi/js circle.js
2001.09.26 15:48 B W:\AEI\Produccio\ictol\source\lib\dynapi\js\clock.js --> ictonline.ictnet.es /lib/dynapi/js clock.js
2001.09.26 15:49 B W:\AEI\Produccio\ictol\source\lib\dynapi\js\collapsemenu.js --> ictonline.ictnet.es /lib/dynapi/js collapsemenu.js
2001.09.26 15:49 B W:\AEI\Produccio\ictol\source\lib\dynapi\js\cookies.js --> ictonline.ictnet.es /lib/dynapi/js cookies.js
2001.09.26 15:49 B W:\AEI\Produccio\ictol\source\lib\dynapi\js\createdestroy.js --> ictonline.ictnet.es /lib/dynapi/js createdestroy.js
2001.09.26 15:49 B W:\AEI\Produccio\ictol\source\lib\dynapi\js\css.js --> ictonline.ictnet.es /lib/dynapi/js css.js
2001.09.26 15:49 B W:\AEI\Produccio\ictol\source\lib\dynapi\js\drag.js --> ictonline.ictnet.es /lib/dynapi/js drag.js
2001.09.26 15:49 B W:\AEI\Produccio\ictol\source\lib\dynapi\js\dynlayer-clip.js --> ictonline.ictnet.es /lib/dynapi/js dynlayer-clip.js
2001.09.26 15:49 B W:\AEI\Produccio\ictol\source\lib\dynapi\js\dynlayer-common.js --> ictonline.ictnet.es /lib/dynapi/js dynlayer-common.js
2001.09.26 15:49 B W:\AEI\Produccio\ictol\source\lib\dynapi\js\dynlayer-glide.js --> ictonline.ictnet.es /lib/dynapi/js dynlayer-glide.js
2001.09.26 15:49 B W:\AEI\Produccio\ictol\source\lib\dynapi\js\dynlayer-min.js --> ictonline.ictnet.es /lib/dynapi/js dynlayer-min.js
2001.09.26 15:49 B W:\AEI\Produccio\ictol\source\lib\dynapi\js\dynlayer-slide.js --> ictonline.ictnet.es /lib/dynapi/js dynlayer-slide.js
2001.09.26 15:49 B W:\AEI\Produccio\ictol\source\lib\dynapi\js\dynlayer-test.js --> ictonline.ictnet.es /lib/dynapi/js dynlayer-test.js
2001.09.26 15:49 B W:\AEI\Produccio\ictol\source\lib\dynapi\js\dynlayer-wipe.js --> ictonline.ictnet.es /lib/dynapi/js dynlayer-wipe.js
2001.09.26 15:49 B W:\AEI\Produccio\ictol\source\lib\dynapi\js\dynlayer-write.js --> ictonline.ictnet.es /lib/dynapi/js dynlayer-write.js
2001.09.26 15:49 B W:\AEI\Produccio\ictol\source\lib\dynapi\js\dynlayer.js --> ictonline.ictnet.es /lib/dynapi/js dynlayer.js
2001.09.26 15:49 B W:\AEI\Produccio\ictol\source\lib\dynapi\js\dynwindow.js --> ictonline.ictnet.es /lib/dynapi/js dynwindow.js
2001.09.26 15:49 B W:\AEI\Produccio\ictol\source\lib\dynapi\js\ellipse.js --> ictonline.ictnet.es /lib/dynapi/js ellipse.js
2001.09.26 15:49 B W:\AEI\Produccio\ictol\source\lib\dynapi\js\gifanim.js --> ictonline.ictnet.es /lib/dynapi/js gifanim.js
2001.09.26 15:49 B W:\AEI\Produccio\ictol\source\lib\dynapi\js\hover.js --> ictonline.ictnet.es /lib/dynapi/js hover.js
2001.09.26 15:49 B W:\AEI\Produccio\ictol\source\lib\dynapi\js\images.js --> ictonline.ictnet.es /lib/dynapi/js images.js
2001.09.26 15:49 B W:\AEI\Produccio\ictol\source\lib\dynapi\js\liquid.js --> ictonline.ictnet.es /lib/dynapi/js liquid.js
2001.09.26 15:49 B W:\AEI\Produccio\ictol\source\lib\dynapi\js\list.js --> ictonline.ictnet.es /lib/dynapi/js list.js
2001.09.26 15:49 B W:\AEI\Produccio\ictol\source\lib\dynapi\js\menubar.js --> ictonline.ictnet.es /lib/dynapi/js menubar.js
2001.09.26 15:49 B W:\AEI\Produccio\ictol\source\lib\dynapi\js\menulist.js --> ictonline.ictnet.es /lib/dynapi/js menulist.js
2001.09.26 15:49 B W:\AEI\Produccio\ictol\source\lib\dynapi\js\miniscroll.js --> ictonline.ictnet.es /lib/dynapi/js miniscroll.js
2001.09.26 15:49 B W:\AEI\Produccio\ictol\source\lib\dynapi\js\mouseevents.js --> ictonline.ictnet.es /lib/dynapi/js mouseevents.js
2001.09.26 15:49 B W:\AEI\Produccio\ictol\source\lib\dynapi\js\newsticker.js --> ictonline.ictnet.es /lib/dynapi/js newsticker.js
2001.09.26 15:49 B W:\AEI\Produccio\ictol\source\lib\dynapi\js\parabola.js --> ictonline.ictnet.es /lib/dynapi/js parabola.js
2001.09.26 15:49 B W:\AEI\Produccio\ictol\source\lib\dynapi\js\passargs.js --> ictonline.ictnet.es /lib/dynapi/js passargs.js
2001.09.26 15:49 B W:\AEI\Produccio\ictol\source\lib\dynapi\js\path.js --> ictonline.ictnet.es /lib/dynapi/js path.js
2001.09.26 15:49 B W:\AEI\Produccio\ictol\source\lib\dynapi\js\progressbar.js --> ictonline.ictnet.es /lib/dynapi/js progressbar.js
2001.09.26 15:49 B W:\AEI\Produccio\ictol\source\lib\dynapi\js\pushpanel.js --> ictonline.ictnet.es /lib/dynapi/js pushpanel.js
2001.09.26 15:49 B W:\AEI\Produccio\ictol\source\lib\dynapi\js\radio.js --> ictonline.ictnet.es /lib/dynapi/js radio.js
2001.09.26 15:49 B W:\AEI\Produccio\ictol\source\lib\dynapi\js\resizefix.js --> ictonline.ictnet.es /lib/dynapi/js resizefix.js
2001.09.26 15:49 B W:\AEI\Produccio\ictol\source\lib\dynapi\js\scroll-resize.js --> ictonline.ictnet.es /lib/dynapi/js scroll-resize.js
2001.09.26 15:49 B W:\AEI\Produccio\ictol\source\lib\dynapi\js\scroll.js --> ictonline.ictnet.es /lib/dynapi/js scroll.js
2001.09.26 15:49 B W:\AEI\Produccio\ictol\source\lib\dynapi\js\scroll2-ext.js --> ictonline.ictnet.es /lib/dynapi/js scroll2-ext.js
2001.09.26 15:49 B W:\AEI\Produccio\ictol\source\lib\dynapi\js\scroll2.js --> ictonline.ictnet.es /lib/dynapi/js scroll2.js
2001.09.26 15:49 B W:\AEI\Produccio\ictol\source\lib\dynapi\js\scrollbar.js --> ictonline.ictnet.es /lib/dynapi/js scrollbar.js
2001.09.26 15:49 B W:\AEI\Produccio\ictol\source\lib\dynapi\js\scrolllist.js --> ictonline.ictnet.es /lib/dynapi/js scrolllist.js
2001.09.26 15:49 B W:\AEI\Produccio\ictol\source\lib\dynapi\js\scrollwindow.js --> ictonline.ictnet.es /lib/dynapi/js scrollwindow.js
2001.09.26 15:49 B W:\AEI\Produccio\ictol\source\lib\dynapi\js\selectlist.js --> ictonline.ictnet.es /lib/dynapi/js selectlist.js
2001.09.26 15:49 B W:\AEI\Produccio\ictol\source\lib\dynapi\js\simpleapi.js --> ictonline.ictnet.es /lib/dynapi/js simpleapi.js
2001.09.26 15:49 B W:\AEI\Produccio\ictol\source\lib\dynapi\js\sinewave.js --> ictonline.ictnet.es /lib/dynapi/js sinewave.js
2001.09.26 15:49 B W:\AEI\Produccio\ictol\source\lib\dynapi\js\tabs.js --> ictonline.ictnet.es /lib/dynapi/js tabs.js
2001.09.26 15:49 B W:\AEI\Produccio\ictol\source\lib\dynapi\js\WS_FTP.LOG --> ictonline.ictnet.es /lib/dynapi/js WS_FTP.LOG
2001.10.23 11:40 B W:\AEI\Produccio\ictol\source\lib\dynapi\js\audio.js --> ictonline.ictnet.es /lib/dynapi/js audio.js
2001.10.23 11:40 B W:\AEI\Produccio\ictol\source\lib\dynapi\js\browsercheck.js --> ictonline.ictnet.es /lib/dynapi/js browsercheck.js
2001.10.23 11:40 B W:\AEI\Produccio\ictol\source\lib\dynapi\js\buttonimage-mini.js --> ictonline.ictnet.es /lib/dynapi/js buttonimage-mini.js
2001.10.23 11:40 B W:\AEI\Produccio\ictol\source\lib\dynapi\js\buttonimage.js --> ictonline.ictnet.es /lib/dynapi/js buttonimage.js
2001.10.23 11:40 B W:\AEI\Produccio\ictol\source\lib\dynapi\js\calendar.js --> ictonline.ictnet.es /lib/dynapi/js calendar.js
2001.10.23 11:40 B W:\AEI\Produccio\ictol\source\lib\dynapi\js\checkbox.js --> ictonline.ictnet.es /lib/dynapi/js checkbox.js
2001.10.23 11:40 B W:\AEI\Produccio\ictol\source\lib\dynapi\js\circle.js --> ictonline.ictnet.es /lib/dynapi/js circle.js
2001.10.23 11:40 B W:\AEI\Produccio\ictol\source\lib\dynapi\js\clock.js --> ictonline.ictnet.es /lib/dynapi/js clock.js
2001.10.23 11:40 B W:\AEI\Produccio\ictol\source\lib\dynapi\js\collapsemenu.js --> ictonline.ictnet.es /lib/dynapi/js collapsemenu.js
2001.10.23 11:40 B W:\AEI\Produccio\ictol\source\lib\dynapi\js\cookies.js --> ictonline.ictnet.es /lib/dynapi/js cookies.js
2001.10.23 11:40 B W:\AEI\Produccio\ictol\source\lib\dynapi\js\createdestroy.js --> ictonline.ictnet.es /lib/dynapi/js createdestroy.js
2001.10.23 11:40 B W:\AEI\Produccio\ictol\source\lib\dynapi\js\css.js --> ictonline.ictnet.es /lib/dynapi/js css.js
2001.10.23 11:40 B W:\AEI\Produccio\ictol\source\lib\dynapi\js\drag.js --> ictonline.ictnet.es /lib/dynapi/js drag.js
2001.10.23 11:40 B W:\AEI\Produccio\ictol\source\lib\dynapi\js\dynlayer-clip.js --> ictonline.ictnet.es /lib/dynapi/js dynlayer-clip.js
2001.10.23 11:40 B W:\AEI\Produccio\ictol\source\lib\dynapi\js\dynlayer-common.js --> ictonline.ictnet.es /lib/dynapi/js dynlayer-common.js
2001.10.23 11:40 B W:\AEI\Produccio\ictol\source\lib\dynapi\js\dynlayer-glide.js --> ictonline.ictnet.es /lib/dynapi/js dynlayer-glide.js
2001.10.23 11:40 B W:\AEI\Produccio\ictol\source\lib\dynapi\js\dynlayer-min.js --> ictonline.ictnet.es /lib/dynapi/js dynlayer-min.js
2001.10.23 11:40 B W:\AEI\Produccio\ictol\source\lib\dynapi\js\dynlayer-slide.js --> ictonline.ictnet.es /lib/dynapi/js dynlayer-slide.js
2001.10.23 11:40 B W:\AEI\Produccio\ictol\source\lib\dynapi\js\dynlayer-test.js --> ictonline.ictnet.es /lib/dynapi/js dynlayer-test.js
2001.10.23 11:40 B W:\AEI\Produccio\ictol\source\lib\dynapi\js\dynlayer-wipe.js --> ictonline.ictnet.es /lib/dynapi/js dynlayer-wipe.js
2001.10.23 11:40 B W:\AEI\Produccio\ictol\source\lib\dynapi\js\dynlayer-write.js --> ictonline.ictnet.es /lib/dynapi/js dynlayer-write.js
2001.10.23 11:40 B W:\AEI\Produccio\ictol\source\lib\dynapi\js\dynlayer.js --> ictonline.ictnet.es /lib/dynapi/js dynlayer.js
2001.10.23 11:40 B W:\AEI\Produccio\ictol\source\lib\dynapi\js\dynwindow.js --> ictonline.ictnet.es /lib/dynapi/js dynwindow.js
2001.10.23 11:40 B W:\AEI\Produccio\ictol\source\lib\dynapi\js\ellipse.js --> ictonline.ictnet.es /lib/dynapi/js ellipse.js
2001.10.23 11:40 B W:\AEI\Produccio\ictol\source\lib\dynapi\js\gifanim.js --> ictonline.ictnet.es /lib/dynapi/js gifanim.js
2001.10.23 11:40 B W:\AEI\Produccio\ictol\source\lib\dynapi\js\hover.js --> ictonline.ictnet.es /lib/dynapi/js hover.js
2001.10.23 11:40 B W:\AEI\Produccio\ictol\source\lib\dynapi\js\images.js --> ictonline.ictnet.es /lib/dynapi/js images.js
2001.10.23 11:40 B W:\AEI\Produccio\ictol\source\lib\dynapi\js\liquid.js --> ictonline.ictnet.es /lib/dynapi/js liquid.js
2001.10.23 11:40 B W:\AEI\Produccio\ictol\source\lib\dynapi\js\list.js --> ictonline.ictnet.es /lib/dynapi/js list.js
2001.10.23 11:40 B W:\AEI\Produccio\ictol\source\lib\dynapi\js\menubar.js --> ictonline.ictnet.es /lib/dynapi/js menubar.js
2001.10.23 11:40 B W:\AEI\Produccio\ictol\source\lib\dynapi\js\menulist.js --> ictonline.ictnet.es /lib/dynapi/js menulist.js
2001.10.23 11:40 B W:\AEI\Produccio\ictol\source\lib\dynapi\js\miniscroll.js --> ictonline.ictnet.es /lib/dynapi/js miniscroll.js
2001.10.23 11:40 B W:\AEI\Produccio\ictol\source\lib\dynapi\js\mouseevents.js --> ictonline.ictnet.es /lib/dynapi/js mouseevents.js
2001.10.23 11:40 B W:\AEI\Produccio\ictol\source\lib\dynapi\js\newsticker.js --> ictonline.ictnet.es /lib/dynapi/js newsticker.js
2001.10.23 11:40 B W:\AEI\Produccio\ictol\source\lib\dynapi\js\parabola.js --> ictonline.ictnet.es /lib/dynapi/js parabola.js
2001.10.23 11:40 B W:\AEI\Produccio\ictol\source\lib\dynapi\js\passargs.js --> ictonline.ictnet.es /lib/dynapi/js passargs.js
2001.10.23 11:40 B W:\AEI\Produccio\ictol\source\lib\dynapi\js\path.js --> ictonline.ictnet.es /lib/dynapi/js path.js
2001.10.23 11:40 B W:\AEI\Produccio\ictol\source\lib\dynapi\js\progressbar.js --> ictonline.ictnet.es /lib/dynapi/js progressbar.js
2001.10.23 11:40 B W:\AEI\Produccio\ictol\source\lib\dynapi\js\pushpanel.js --> ictonline.ictnet.es /lib/dynapi/js pushpanel.js
2001.10.23 11:40 B W:\AEI\Produccio\ictol\source\lib\dynapi\js\radio.js --> ictonline.ictnet.es /lib/dynapi/js radio.js
2001.10.23 11:40 B W:\AEI\Produccio\ictol\source\lib\dynapi\js\resizefix.js --> ictonline.ictnet.es /lib/dynapi/js resizefix.js
2001.10.23 11:40 B W:\AEI\Produccio\ictol\source\lib\dynapi\js\scroll-resize.js --> ictonline.ictnet.es /lib/dynapi/js scroll-resize.js
2001.10.23 11:40 B W:\AEI\Produccio\ictol\source\lib\dynapi\js\scroll.js --> ictonline.ictnet.es /lib/dynapi/js scroll.js
2001.10.23 11:40 B W:\AEI\Produccio\ictol\source\lib\dynapi\js\scroll2-ext.js --> ictonline.ictnet.es /lib/dynapi/js scroll2-ext.js
2001.10.23 11:40 B W:\AEI\Produccio\ictol\source\lib\dynapi\js\scroll2.js --> ictonline.ictnet.es /lib/dynapi/js scroll2.js
2001.10.23 11:40 B W:\AEI\Produccio\ictol\source\lib\dynapi\js\scrollbar.js --> ictonline.ictnet.es /lib/dynapi/js scrollbar.js
2001.10.23 11:40 B W:\AEI\Produccio\ictol\source\lib\dynapi\js\scrolllist.js --> ictonline.ictnet.es /lib/dynapi/js scrolllist.js
2001.10.23 11:40 B W:\AEI\Produccio\ictol\source\lib\dynapi\js\scrollwindow.js --> ictonline.ictnet.es /lib/dynapi/js scrollwindow.js
2001.10.23 11:40 B W:\AEI\Produccio\ictol\source\lib\dynapi\js\selectlist.js --> ictonline.ictnet.es /lib/dynapi/js selectlist.js
2001.10.23 11:40 B W:\AEI\Produccio\ictol\source\lib\dynapi\js\simpleapi.js --> ictonline.ictnet.es /lib/dynapi/js simpleapi.js
2001.10.23 11:40 B W:\AEI\Produccio\ictol\source\lib\dynapi\js\sinewave.js --> ictonline.ictnet.es /lib/dynapi/js sinewave.js
2001.10.23 11:40 B W:\AEI\Produccio\ictol\source\lib\dynapi\js\tabs.js --> ictonline.ictnet.es /lib/dynapi/js tabs.js
2001.10.23 11:40 B W:\AEI\Produccio\ictol\source\lib\dynapi\js\WS_FTP.LOG --> ictonline.ictnet.es /lib/dynapi/js WS_FTP.LOG
