2001.09.06 13:38 B W:\AEI\Produccio\ictol\source\lib\dynapi\ext\dragdrop.js --> mis.ictnet.es /E:/MIS/ictonline/source/lib/dynapi/ext dragdrop.js
2001.09.06 13:38 B W:\AEI\Produccio\ictol\source\lib\dynapi\ext\functions.js --> mis.ictnet.es /E:/MIS/ictonline/source/lib/dynapi/ext functions.js
2001.09.06 13:38 B W:\AEI\Produccio\ictol\source\lib\dynapi\ext\inline.js --> mis.ictnet.es /E:/MIS/ictonline/source/lib/dynapi/ext inline.js
2001.09.06 13:38 B W:\AEI\Produccio\ictol\source\lib\dynapi\ext\keyevents.js --> mis.ictnet.es /E:/MIS/ictonline/source/lib/dynapi/ext keyevents.js
2001.09.06 13:38 B W:\AEI\Produccio\ictol\source\lib\dynapi\ext\layer.js --> mis.ictnet.es /E:/MIS/ictonline/source/lib/dynapi/ext layer.js
2001.09.26 15:48 B W:\AEI\Produccio\ictol\source\lib\dynapi\ext\dragdrop.js --> ictonline.ictnet.es /lib/dynapi/ext dragdrop.js
2001.09.26 15:48 B W:\AEI\Produccio\ictol\source\lib\dynapi\ext\functions.js --> ictonline.ictnet.es /lib/dynapi/ext functions.js
2001.09.26 15:48 B W:\AEI\Produccio\ictol\source\lib\dynapi\ext\inline.js --> ictonline.ictnet.es /lib/dynapi/ext inline.js
2001.09.26 15:48 B W:\AEI\Produccio\ictol\source\lib\dynapi\ext\keyevents.js --> ictonline.ictnet.es /lib/dynapi/ext keyevents.js
2001.09.26 15:48 B W:\AEI\Produccio\ictol\source\lib\dynapi\ext\layer.js --> ictonline.ictnet.es /lib/dynapi/ext layer.js
2001.09.26 15:48 B W:\AEI\Produccio\ictol\source\lib\dynapi\ext\WS_FTP.LOG --> ictonline.ictnet.es /lib/dynapi/ext WS_FTP.LOG
2001.10.23 11:39 B W:\AEI\Produccio\ictol\source\lib\dynapi\ext\dragdrop.js --> ictonline.ictnet.es /lib/dynapi/ext dragdrop.js
2001.10.23 11:39 B W:\AEI\Produccio\ictol\source\lib\dynapi\ext\functions.js --> ictonline.ictnet.es /lib/dynapi/ext functions.js
2001.10.23 11:39 B W:\AEI\Produccio\ictol\source\lib\dynapi\ext\inline.js --> ictonline.ictnet.es /lib/dynapi/ext inline.js
2001.10.23 11:39 B W:\AEI\Produccio\ictol\source\lib\dynapi\ext\keyevents.js --> ictonline.ictnet.es /lib/dynapi/ext keyevents.js
2001.10.23 11:39 B W:\AEI\Produccio\ictol\source\lib\dynapi\ext\layer.js --> ictonline.ictnet.es /lib/dynapi/ext layer.js
2001.10.23 11:39 B W:\AEI\Produccio\ictol\source\lib\dynapi\ext\WS_FTP.LOG --> ictonline.ictnet.es /lib/dynapi/ext WS_FTP.LOG
